^C:\USERS\POWIE\DOCUMENTS\MOBILEPROJECT\MOBILEPROJECT\CONVERTER\CONVERTER\DEBUG\SOURCE.OBJ
C:\USERS\POWIE\DOCUMENTS\MOBILEPROJECT\MOBILEPROJECT\CONVERTER\DEBUG\CONVERTER.EXE
C:\USERS\POWIE\DOCUMENTS\MOBILEPROJECT\MOBILEPROJECT\CONVERTER\DEBUG\CONVERTER.ILK
C:\USERS\POWIE\DOCUMENTS\MOBILEPROJECT\MOBILEPROJECT\CONVERTER\DEBUG\CONVERTER.PDB
