^C:\USERS\POWIE\DOCUMENTS\BUGIO2\BUGIO2\X64\RELEASE\BRAIN.OBJ|C:\USERS\POWIE\DOCUMENTS\BUGIO2\BUGIO2\X64\RELEASE\BUG.OBJ|C:\USERS\POWIE\DOCUMENTS\BUGIO2\BUGIO2\X64\RELEASE\ENVIRO.OBJ|C:\USERS\POWIE\DOCUMENTS\BUGIO2\BUGIO2\X64\RELEASE\MAIN.OBJ|C:\USERS\POWIE\DOCUMENTS\BUGIO2\BUGIO2\X64\RELEASE\NODE.OBJ
C:\USERS\POWIE\DOCUMENTS\BUGIO2\X64\RELEASE\BUGIO2.EXE
C:\USERS\POWIE\DOCUMENTS\BUGIO2\X64\RELEASE\BUGIO2.PDB
^C:\USERS\POWIE\DOCUMENTS\BUGIO\BUGIO2\BUGIO2\X64\RELEASE\BRAIN.OBJ|C:\USERS\POWIE\DOCUMENTS\BUGIO\BUGIO2\BUGIO2\X64\RELEASE\BUG.OBJ|C:\USERS\POWIE\DOCUMENTS\BUGIO\BUGIO2\BUGIO2\X64\RELEASE\ENVIRO.OBJ|C:\USERS\POWIE\DOCUMENTS\BUGIO\BUGIO2\BUGIO2\X64\RELEASE\MAIN.OBJ|C:\USERS\POWIE\DOCUMENTS\BUGIO\BUGIO2\BUGIO2\X64\RELEASE\NODE.OBJ
C:\USERS\POWIE\DOCUMENTS\BUGIO\BUGIO2\X64\RELEASE\BUGIO2.EXE
C:\USERS\POWIE\DOCUMENTS\BUGIO\BUGIO2\X64\RELEASE\BUGIO2.PDB
