/*
	name = amount
*/
Wood = 50
Stone = 50
Iron Ore = 50
Coal = 50
Building Material = 0
Fish = 500
Meat = 500
Veggies = 500
Grain = 500
Bread = 500
Flour = 0
Planks = 0
Iron Bar = 0
Bricks = 0
Leather = 0
Cloth = 0
Clothing = 0
Wool = 0
Clay = 0
Iron Tools = 0
Iron Weapons = 0
Charcoal = 0
Firewood = 0
Furniture = 0
Pottery = 0
Salt = 0
Spice = 0
Tobacco = 0
Cigars = 0
Beer = 0
Whiskey = 0
gold = 500